<svg width="31" height="26" viewBox="0 0 31 26" fill="none" xmlns="http://www.w3.org/2000/svg">
<path d="M12.4965 22.7006L11.8859 23.5M11.8859 23.5L29 1.5M11.8859 23.5L1 14.3206" stroke="#24305E" stroke-width="3"/>
</svg>
